<?xml version="1.0" standalone="no"?>
<!DOCTYPE svg PUBLIC "-//W3C//DTD SVG 20010904//EN"
 "http://www.w3.org/TR/2001/REC-SVG-20010904/DTD/svg10.dtd">
<svg version="1.0" xmlns="http://www.w3.org/2000/svg"
 width="205.000000pt" height="205.000000pt" viewBox="0 0 205.000000 205.000000"
 preserveAspectRatio="xMidYMid meet">
<metadata>
Created by potrace 1.15, written by Peter Selinger 2001-2017
</metadata>
<g transform="translate(0.000000,205.000000) scale(0.100000,-0.100000)"
fill="#000000" stroke="none">
<path d="M433 1096 c-26 -23 -27 -26 -15 -58 8 -21 9 -34 2 -36 -5 -2 -10 -14
-10 -27 0 -24 30 -42 49 -30 5 3 12 1 16 -5 17 -28 135 3 135 36 0 12 10 8 35
-15 31 -27 43 -31 95 -31 64 0 110 15 110 37 0 10 10 12 39 7 24 -4 41 -2 45
5 13 21 35 11 38 -16 3 -25 7 -28 45 -31 51 -4 56 7 51 113 l-3 70 -45 0 c-42
0 -45 -2 -48 -27 -2 -16 -7 -28 -12 -28 -5 0 -10 12 -12 28 -3 23 -8 27 -41
30 -21 2 -44 -1 -51 -7 -7 -6 -17 -6 -26 -1 -22 14 -141 12 -169 -3 -13 -6
-32 -27 -41 -44 -20 -37 -34 -34 -17 4 16 36 -11 53 -84 53 -47 0 -63 -5 -86
-24z"/>
<path d="M1080 1025 l0 -96 98 3 97 3 3 28 c2 18 -2 29 -12 33 -18 7 -23 64
-6 64 6 0 10 -9 10 -19 0 -45 9 -51 80 -51 67 0 68 0 73 -29 l6 -30 148 2 148
2 3 28 c2 18 -2 29 -12 33 -20 8 -21 60 -1 68 8 3 15 17 15 31 l0 25 -147 -1
c-131 -1 -150 -3 -169 -20 -20 -19 -21 -19 -39 1 -16 18 -30 20 -157 20 l-138
0 0 -95z"/>
</g>
</svg>
